// Jest Snapshot v1, https://goo.gl/fbAQLP

exports[`404 page renders correctly 1`] = `
<NotFound__Container>
  <HelmetWrapper
    defer={true}
    encodeSpecialCharacters={true}
  >
    Page not found | Cheesecake
  </HelmetWrapper>
  <h1>
    There is nothing to be seen here!
  </h1>
  <p>
    We are sorry, there is no content matching this URL, try navigating again from the home page
  </p>
</NotFound__Container>
`;
