// Jest Snapshot v1, https://goo.gl/fbAQLP

exports[`Post component renders first post layout  1`] = `
<article
  class="Post__Container-ixcft8-0 cUWhIt"
>
  <header>
    <span
      class="CategoryName-sc-7ith7y-0 iydgGg"
    >
      sports
    </span>
    <a
      class="Post__Thumbnail-ixcft8-1 HRZKh"
      href="/post/asdasdsadsadsa"
    >
      <img
        alt="Test post"
        src="http://google.com"
      />
    </a>
    <h2>
      <a
        href="/post/asdasdsadsadsa"
      >
        Test post
      </a>
    </h2>
    <p
      class="Author__Container-sc-1llyk5b-0 eqUBqy"
    >
      <span>
        <img
          alt="Bruno Gama's picture"
          src="http://google.com"
        />
      </span>
       by Bruno Gama
    </p>
  </header>
</article>
`;

exports[`Post component renders fourth+ post layout 1`] = `
<article
  class="Post__Container-ixcft8-0 grhTtp"
>
  <header>
    <span
      class="CategoryName-sc-7ith7y-0 iydgGg"
    >
      sports
    </span>
    <h2>
      <a
        href="/post/asdasdsadsadsa"
      >
        Test post
      </a>
    </h2>
    <p
      class="Author__Container-sc-1llyk5b-0 hDmJRx"
    >
      <span>
        <img
          alt="Bruno Gama's picture"
          src="http://google.com"
        />
      </span>
       by Bruno Gama
    </p>
  </header>
  <p>
    This is a test
  </p>
</article>
`;

exports[`Post component renders second and third post layout  1`] = `
<article
  class="Post__Container-ixcft8-0 fKdllZ"
>
  <header>
    <span
      class="CategoryName-sc-7ith7y-0 iydgGg"
    >
      sports
    </span>
    <a
      class="Post__Thumbnail-ixcft8-1 HRZKh"
      href="/post/asdasdsadsadsa"
    >
      <img
        alt="Test post"
        src="http://google.com"
      />
    </a>
    <h2>
      <a
        href="/post/asdasdsadsadsa"
      >
        Test post
      </a>
    </h2>
    <p
      class="Author__Container-sc-1llyk5b-0 hDmJRx"
    >
      <span>
        <img
          alt="Bruno Gama's picture"
          src="http://google.com"
        />
      </span>
       by Bruno Gama
    </p>
  </header>
  <p>
    This is a test
  </p>
</article>
`;
