// Jest Snapshot v1, https://goo.gl/fbAQLP

exports[`Profile wrapper renders logged in layout 1`] = `
<aside
  class="Profile__Container-sc-1yoiuc2-0 bWECZf"
>
  <form
    class="Interests__InterestsForm-g53hdr-0 gMnhRr"
  >
    <h3>
      Welcome, 
      <strong>
        Bruno Gama
      </strong>
    </h3>
    <fieldset>
      <h4>
        My interests
      </h4>
      <label
        class="Toggle__Label-ergwmr-0 eHgQRj"
        color="#D0021B"
      >
        <input
          id="politics"
          name="politics"
          type="checkbox"
        />
        politics
      </label>
      <label
        class="Toggle__Label-ergwmr-0 gdSBOY"
        color="#BD10E0"
      >
        <input
          id="business"
          name="business"
          type="checkbox"
        />
        business
      </label>
      <label
        class="Toggle__Label-ergwmr-0 hzEDHv"
        color="#4990E2"
      >
        <input
          id="tech"
          name="tech"
          type="checkbox"
        />
        tech
      </label>
      <label
        class="Toggle__Label-ergwmr-0 btMzbQ"
        color="#7CBB37"
      >
        <input
          id="science"
          name="science"
          type="checkbox"
        />
        science
      </label>
      <label
        class="Toggle__Label-ergwmr-0 beCuPX"
        color="#F5A623"
      >
        <input
          id="sports"
          name="sports"
          type="checkbox"
        />
        sports
      </label>
      <button
        class="Button-mlkco3-0 kLltxN"
        type="submit"
      >
        save
      </button>
    </fieldset>
    <a
      href="#"
    >
      Back to home
    </a>
    <a
      href="#"
    >
      Log out
    </a>
  </form>
</aside>
`;

exports[`Profile wrapper renders logged out layout 1`] = `
<aside
  class="Profile__Container-sc-1yoiuc2-0 bWECZf"
>
  <form
    aria-busy="false"
    class="Login__LoginForm-maywcv-0 RXnKp"
  >
    <h3>
      User Area
    </h3>
    <fieldset>
      <label>
        Username
        <input
          name="username"
          type="text"
          value=""
        />
      </label>
      <label>
        Password
        <input
          name="password"
          type="password"
          value=""
        />
      </label>
      <button
        aria-busy="false"
        class="Button-mlkco3-0 kLltxN"
        type="submit"
      >
        Login
      </button>
      <a
        href="#"
      >
        Back to home
      </a>
    </fieldset>
  </form>
</aside>
`;
